…
reg <-   (sumv(x1*e(.5), x2*e(.3))*y) + ((z1*sumv(e(.4)*x1, e(.3)*y))) 

plot(reg)
```

<img src="man/figures/README-unnamed-chunk-21-1.png" width="100%" />

``` r
ralget_sim(reg, 1000)
#> # A tibble: 1,000 x 4
#>       x2    z1    x1     y
#>    <dbl> <dbl> <dbl> <dbl>
#>  1 104.  113.   147.  131.
#>  2 106.  106.   121.  157.
#>  3 106.   88.5  127.  134.
#>  4 113.  127.   160.  183.
#>  5  90.9  97.3  154.  122.
#>  6 101.  102.   162.  161.
#>  7 119.   94.8  155.  126.
#>  8  80.9 122.   144.  141.
#>  9  94.6  92.3  154.  118.
#> 10  92.3  91.2  143.  118.
#> # … with 990 more rows
```
